<svg width="34" height="34" viewBox="0 0 34 34" fill="none" xmlns="http://www.w3.org/2000/svg">
<path d="M33 17C33 25.8517 25.9424 33 17.27 33C8.59753 33 1.53992 25.8517 1.53992 17C1.53992 8.14829 8.59753 1 17.27 1C25.9424 1 33 8.14829 33 17Z" stroke="#ADA7FF" stroke-width="2"/>
<path d="M21.6849 16.4719C22.2891 16.8665 22.2891 17.7516 21.6849 18.1463L15.9963 21.8623C15.3312 22.2967 14.4494 21.8195 14.4494 21.025L14.4494 17.3092L14.4494 13.5931C14.4494 12.7987 15.3312 12.3214 15.9963 12.7559L21.6849 16.4719Z" fill="#ADA7FF"/>
</svg>
